# A tibble: 5,431 x 15
   read  gt_length aln_length n_alignments n_mat n_sub n_ins n_del n_hdel
   <chr>     <dbl>      <dbl>        <dbl> <dbl> <dbl> <dbl> <dbl>  <dbl>
 1 0004…       321        405         1000   306     3    84    12      5
 2 0005…       587        676         1000   555     3    89    29     12
 3 0007…       313        330         1000   295     5    17    13      5
 4 0009…       335        344         1000   310     6     9    19      6
 5 0009…       310        402         1000   294     3    92    13      4
 6 000b…       324        350         1000   299     9    26    16      4
 7 000c…       254        269         1000   243     3    15     8      1
 8 000d…       438        465         1000   397    14    27    27      8
 9 000e…       230        317         1000   213     9    87     8      4
10 000e…       830        846         1000   793     7    16    30     11
# … with 5,421 more rows, and 6 more variables: n_ctsub <dbl>, n_cgsub <dbl>,
#   n_casub <dbl>, n_gasub <dbl>, n_gtsub <dbl>, n_atsub <dbl>
…
